<svg width="108" height="108" viewBox="0 0 108 108" fill="none" xmlns="http://www.w3.org/2000/svg">
<path d="M95.606 18.0483H12.2886C7.3447 18.0483 3.32227 22.0708 3.32227 27.0146V79.129C3.32227 84.0728 7.3447 88.0952 12.2886 88.0952H95.606C100.55 88.0952 104.572 84.0728 104.572 79.129V27.0146C104.572 22.0708 100.55 18.0483 95.606 18.0483ZM24.4764 55.087L24.5308 59.1861L24.5363 59.3004C24.9429 63.8092 27.0095 67.9849 30.3558 71.0587C33.7232 74.1524 38.0973 75.8567 42.6728 75.8567H55.2561C59.7118 75.8567 63.8998 74.1215 67.0497 70.9716C70.2002 67.8205 71.9342 63.6325 71.9342 59.1774V49.1532C71.9342 48.7435 72.098 48.3622 72.3946 48.0791C72.6906 47.7967 73.0787 47.6515 73.4915 47.6713C74.2696 47.7077 74.9018 48.4104 74.9018 49.2372V53.6033C74.9018 56.0573 76.8985 58.054 79.3525 58.054C81.8058 58.054 83.8025 56.0573 83.8025 53.6033V44.2928C83.8025 37.9745 78.6628 32.8342 72.3446 32.8342H54.1327V25.4171H96.1893C96.7214 25.4171 97.154 25.8497 97.154 26.3818V79.6629C97.154 80.195 96.7214 80.6282 96.1893 80.6282H12.076C11.5439 80.6282 11.1101 80.195 11.1101 79.6629V26.3818C11.1101 25.8497 11.5439 25.4165 12.076 25.4165H17.0445V55.087H24.4764ZM54.1327 35.8017H62.79L54.1327 44.4584V35.8017ZM30.3565 65.1249C33.7238 68.2185 38.0973 69.9217 42.6728 69.9217H55.2568C59.7118 69.9217 63.8998 68.187 67.0497 65.0365C67.4477 64.6398 67.8222 64.2257 68.1738 63.7962C67.5002 65.6842 66.4113 67.4145 64.9523 68.8729C62.3629 71.4629 58.9189 72.8886 55.2568 72.8886H42.6728C38.8432 72.8886 35.1817 71.4635 32.3637 68.8742C30.5863 67.2415 29.2416 65.2367 28.4086 63.0268C28.9994 63.7697 29.6476 64.4735 30.3565 65.1249ZM64.9523 62.9391C62.3617 65.5284 58.9189 66.9547 55.2561 66.9547H53.6346L68.9673 51.622V53.243C68.9679 56.9057 67.5416 60.3491 64.9523 62.9391ZM68.9679 43.2187V47.4259L49.4385 66.9547H44.7332L69.0013 42.6872C68.9803 42.8627 68.9679 43.0401 68.9679 43.2187ZM71.9354 43.2187C71.9354 42.8096 72.098 42.4277 72.3946 42.1453C72.6906 41.8622 73.0793 41.7176 73.4928 41.7374C74.2696 41.7732 74.9024 42.4759 74.9024 43.3027V44.9577C74.5019 44.8149 74.0761 44.7284 73.6312 44.7074C73.0435 44.6796 72.4706 44.7655 71.9354 44.9546V43.2187ZM77.8693 51.8643C78.3334 52.0299 78.8327 52.1201 79.3525 52.1201C79.8722 52.1201 80.3721 52.0286 80.8356 51.8643V53.6033C80.8356 54.4215 80.1707 55.087 79.3525 55.087C78.5342 55.087 77.8693 54.4215 77.8693 53.6033V51.8643ZM80.8356 47.6688C80.8356 48.487 80.1707 49.1532 79.3525 49.1532C78.5342 49.1532 77.8693 48.487 77.8693 47.6688V43.3027C77.8693 43.1174 77.8545 42.9363 77.8335 42.7558L79.9896 40.6003C80.5316 41.717 80.8356 42.9703 80.8356 44.2928V47.6688ZM76.43 39.9638C75.6884 39.2686 74.7145 38.8242 73.6312 38.7729C73.3803 38.7618 73.1325 38.7717 72.8884 38.8001L75.3405 36.3486C76.4232 36.7577 77.4003 37.3837 78.2215 38.1723L76.43 39.9638ZM54.1327 53.3598V48.6545L66.9867 35.8017H71.6907L54.1327 53.3598ZM52.4054 55.087L40.6706 66.8219C39.387 66.6525 38.1381 66.3213 36.9478 65.8393L47.7001 55.087H52.4054ZM34.2059 64.3852C33.5607 63.9526 32.9433 63.4724 32.3637 62.9403C32.1165 62.7129 31.8804 62.4768 31.6505 62.2358L38.7999 55.087H43.504L34.2059 64.3852ZM29.8058 59.8844C28.8702 58.4142 28.1923 56.7945 27.8067 55.087H34.6032L29.8058 59.8844ZM51.1657 52.1201H20.0115V21.0153H51.1657V52.1201ZM101.605 79.129C101.605 82.4364 98.914 85.1277 95.606 85.1277H12.2886C8.9805 85.1277 6.28919 82.4364 6.28919 79.129V27.0146C6.28919 23.7066 8.9805 21.0153 12.2886 21.0153H17.0445V22.449H12.076C9.90747 22.449 8.14375 24.2133 8.14375 26.3818V79.6629C8.14375 81.8308 9.90747 83.5951 12.076 83.5951H96.1893C98.3578 83.5951 100.122 81.8308 100.122 79.6629V26.3818C100.122 24.2133 98.3578 22.449 96.1893 22.449H54.1327V21.0153H95.606C98.914 21.0153 101.605 23.7066 101.605 27.0146V79.129Z" fill="#FFC764"/>
<path d="M22.9785 23.9332H25.9454V26.9002H22.9785V23.9332Z" fill="#FFC764"/>
<path d="M22.9785 29.8672H34.8462V32.8341H22.9785V29.8672Z" fill="#FFC764"/>
<path d="M22.9785 35.8016H28.9124V38.7686H22.9785V35.8016Z" fill="#FFC764"/>
<path d="M31.8799 35.8016H39.2975V38.7686H31.8799V35.8016Z" fill="#FFC764"/>
<path d="M45.2324 46.1857H48.2V49.1532H45.2324V46.1857Z" fill="#FFC764"/>
<path d="M90.1683 28.8191L92.2663 30.9171L85.2195 37.9634L83.1221 35.8653L90.1683 28.8191Z" fill="#FFC764"/>
<path d="M90.6059 41.4852L88.5078 39.3872L91.6601 36.2349L93.7582 38.3329L90.6059 41.4852Z" fill="#FFC764"/>
<path d="M86.8302 57.0045L88.927 59.1026L77.06 70.9709L74.9619 68.8728L86.8302 57.0045Z" fill="#FFC764"/>
<path d="M89.3074 68.0047L87.21 65.9067L91.4746 61.6407L93.5727 63.7388L89.3074 68.0047Z" fill="#FFC764"/>
<path d="M22.544 68.0045L16.6107 73.9384L14.5127 71.8403L20.4459 65.9065L22.544 68.0045Z" fill="#FFC764"/>
<path d="M19.7631 60.401L16.6107 63.5533L14.5127 61.4553L17.665 58.3036L19.7631 60.401Z" fill="#FFC764"/>
</svg>
